{
    "name": "scopes",
    "url": "https://bitbucket.org/parensoft/scopes",
    "license": "MIT",
    "tags": ["try-finally", "cross", "utility", "autoclose", "scope", "guard", "scopes"],
    "description": "scope exit (guard) expressions, autoclose variables and protected (try/finally) for Haxe",
    "version": "1.1.1",
    "releasenote": "major bug fixed, now method chains should always work",
    "contributors": ["jszymanski"]
}
